A level results day,13,8,2020,th,
Gyms reopen,25,7,2020,th,
Start Uni (year 1),21,9,2020,st,
Christmas,25,12,1,th,
Sky dive,23,8,2020,rd,
Finish uni (Term 1),18,12,2020,th,
Start uni (Term 2),11,1,2021,th,
Finish uni (Term 2),26,3,2021,th,
Start uni (Term 3),19,4,2021,th,
Finish uni (Term 3/Year 1),18,6,2021,th,
Move In (Uni),19,9,2020,th,
